<?xml version="1.0" encoding="utf-8"?>
<!-- Generator: Adobe Illustrator 18.1.0, SVG Export Plug-In . SVG Version: 6.00 Build 0)  -->
<!DOCTYPE svg PUBLIC "-//W3C//DTD SVG 1.1//EN" "http://www.w3.org/Graphics/SVG/1.1/DTD/svg11.dtd">
<svg version="1.1" id="Layer_1" xmlns="http://www.w3.org/2000/svg" xmlns:xlink="http://www.w3.org/1999/xlink" x="0px" y="0px"
	 viewBox="0 0 5470.9 820" enable-background="new 0 0 5470.9 820" xml:space="preserve">
<g>
	<g>
		<g>
			<path fill-rule="evenodd" clip-rule="evenodd" fill="#C12326" d="M719,201.9H356.8l52,90.7h20.9l3,0.1l243.2,0
				c6.3,0,21.5,3.1,21.6,23.4V504c-0.1,20.4-15.3,23.4-21.6,23.4l-306.7,0.7l-0.2-77h252.5v-86.4l-257.9,0.3l-97.4-163.9H161.3
				L278.9,406l-0.1,211.5h87.7v0.1h358.2c40.3,0,63.8-35.1,63.8-105.6v-219C788.5,232.7,765,201.9,719,201.9"/>
			<path fill-rule="evenodd" clip-rule="evenodd" fill="#423C35" d="M2017.6,451.2h-287.8v167.2h-90.2V285.9
				c0-56.9,29.7-84.8,86.6-84.8h305.2c51.4,0,76.7,30.7,76.7,91.1v64.2v141.7v120.3h-90.2L2017.6,451.2z M2017,361.1v-44.9
				c0.5-19.2-17.6-24.4-22.1-24.4h-243.4c-6.3,0-21.6,3.1-21.6,23.5v45.8H2017z"/>
			<polygon fill-rule="evenodd" clip-rule="evenodd" fill="#423C35" points="2768.2,451.2 2768.2,617.6 2678,617.6 2678,201.4 
				2768.2,201.4 2768.2,361.3 2926,361.3 3020.8,201.3 3125.7,201.3 3008.1,406 3125.7,618.1 3021.5,618.1 2925,451.2 			"/>
			<polygon fill-rule="evenodd" clip-rule="evenodd" fill="#423C35" points="4851.3,618.4 4851.3,201.1 5293.3,201.1 5293.3,292.3 
				4940.8,292.3 4940.8,361.3 5293.3,361.3 5293.3,451.4 4940.8,451.4 4940.8,527.7 5293.3,527.7 5293.3,618.4 			"/>
			<path fill-rule="evenodd" clip-rule="evenodd" fill="#423C35" d="M4646.7,526.9c6.2,0,21.5-3.1,21.6-23.5v-29.3
				c-0.1-20.3-15.3-23.4-21.6-23.4l-287.1-0.1c-42.5,0-61-31.1-61-94.2v-64c0-60.5,21.7-91.1,64.1-91.1h402.8l-53.3,90.8l-301.8-0.2
				c-6.3,0-21.5,3.1-21.7,23.5V338c0.2,20.4,15.4,23.4,21.7,23.4l279.7-0.1c46.9,0,70.4,27.6,70.4,93.4v57
				c0,71.2-23.5,106.4-70.4,106.4h-408.5l55-91L4646.7,526.9z"/>
			<path fill-rule="evenodd" clip-rule="evenodd" fill="#423C35" d="M2611.3,292.6l-319,0.2c-6.3,0-21.5,3.1-21.6,23.4v141.9V504
				c0.1,20.4,15.3,23.4,21.6,23.4l319.3-0.1v90.3h-362.4c-46,0-69.6-35.1-69.6-105.6v-219c0-60.4,23.5-91.1,69.6-91.1h362.4v90.7
				L2611.3,292.6z"/>
			<path fill-rule="evenodd" clip-rule="evenodd" fill="#423C35" d="M1542.7,284.3c0-60.5-24.4-83-69.5-82.4h-389.1V618h389.1
				c45.1,0.1,69.5-20.2,69.5-80.6v-72.1c0-23.4-4.5-41.4-13-54.4c8.5-13.1,13-31,13-54.4V284.3z M1450.3,503.2
				c0.5,19.3-17.6,24.5-22.1,24.5l-253.4-0.1v-76.3l253.4-0.1c4.5,0,22.6,5.1,22.1,24.4V503.2z M1450.3,336.6
				c0.5,19.3-17.6,24.4-22.1,24.4l-253.4-0.1v-68.5l253.4-0.1c4.5,0,22.6,5.1,22.1,24.4V336.6z"/>
			<path fill-rule="evenodd" clip-rule="evenodd" fill="#423C35" d="M3638.5,284.3c0-60.5-24.4-83-69.5-82.4h-389v194.9v28.1V618
				h389c45.1,0.1,69.5-20.2,69.5-80.6v-72.1c0-23.4-4.5-41.4-13-54.4c8.5-13.1,13-31,13-54.4V284.3z M3546.2,503.2
				c0.5,19.3-17.7,24.5-22.1,24.5l-253.4-0.1v-76.3l253.4-0.1c4.5,0,22.6,5.1,22.1,24.4V503.2z M3546.2,336.6
				c0.5,19.3-17.7,24.4-22.1,24.4l-253.4-0.1v-68.5l253.4-0.1c4.5,0,22.6,5.1,22.1,24.4V336.6z"/>
			<path fill-rule="evenodd" clip-rule="evenodd" fill="#423C35" d="M4113.4,451.2h-287.7v167.2h-90.2V285.9
				c0-56.9,29.8-84.8,86.7-84.8h305.2c51.3,0,76.6,30.7,76.6,91.1v64.2v141.7v120.3h-90.2L4113.4,451.2z M4112.8,361.1l0-44.9
				c0.5-19.2-17.6-24.4-22.1-24.4h-243.3c-6.3,0-21.6,3.1-21.6,23.5v45.8H4112.8z"/>
		</g>
	</g>
</g>
</svg>
